…
## When You Miss the Target 🎯

``` r
wind_dir <- data %>% 
  select(station_id, station_name, date, wind_spd, wind_dir) %>% 
  filter(wind_spd != 0) %>% 
  mutate(wind_spd_cat = cut(wind_spd, breaks = c(0,25,50,75),
                            labels = c("1-25 km/h Winds",
                                       "26-50 km/h Winds",
                                       "51-75 km/h Winds")))
wind_dir
```

    ## # A tibble: 210,898 x 6
    ##    station_id station_name      date       wind_spd wind_dir wind_spd_cat  
    ##         <dbl> <chr>             <date>        <dbl>    <dbl> <fct>         
    ##  1         52 ESQUIMALT HARBOUR 1994-02-01       11       36 1-25 km/h Win…
    ##  2         52 ESQUIMALT HARBOUR 1994-02-01       11       35 1-25 km/h Win…
    ##  3         52 ESQUIMALT HARBOUR 1994-02-01       15       35 1-25 km/h Win…
    ##  4         52 ESQUIMALT HARBOUR 1994-02-01        9       36 1-25 km/h Win…
    ##  5         52 ESQUIMALT HARBOUR 1994-02-01        7       36 1-25 km/h Win…
    ##  6         52 ESQUIMALT HARBOUR 1994-02-01        9       36 1-25 km/h Win…
    ##  7         52 ESQUIMALT HARBOUR 1994-02-01       11       36 1-25 km/h Win…
    ##  8         52 ESQUIMALT HARBOUR 1994-02-01        7       36 1-25 km/h Win…
    ##  9         52 ESQUIMALT HARBOUR 1994-02-01        9       35 1-25 km/h Win…
    ## 10         52 ESQUIMALT HARBOUR 1994-02-01        9       36 1-25 km/h Win…
    ## # … with 210,888 more rows
…
